\relax 
\newlabel{usepackage}{{}{}}
\newlabel{sec:titulo}{{}{}}
\newlabel{sec:resumen}{{}{}}
\@writefile{toc}{\contentsline {section}{\numberline {I}Introducci\'on}{}\protected@file@percent }
\newlabel{sec:introduccion}{{I}{}}
\@writefile{toc}{\contentsline {section}{\numberline {II}Marco Te\'orico}{}\protected@file@percent }
\newlabel{sec:marcoteorico}{{II}{}}
\@writefile{lof}{\contentsline {figure}{\numberline {1}{\ignorespaces Rasberry Pi3}}{}\protected@file@percent }
\newlabel{fig:ECCI}{{1}{}}
\@writefile{lof}{\contentsline {figure}{\numberline {2}{\ignorespaces Ejes MPU60503}}{}\protected@file@percent }
\newlabel{fig:ECCI}{{2}{}}
\@writefile{toc}{\contentsline {section}{\numberline {III}Resultados}{}\protected@file@percent }
\newlabel{sec:resultados}{{III}{}}
\@writefile{lof}{\contentsline {figure}{\numberline {3}{\ignorespaces C\'odigo de calibraci\'on}}{}\protected@file@percent }
\newlabel{fig:ECCI}{{3}{}}
\@writefile{lof}{\contentsline {figure}{\numberline {4}{\ignorespaces C\'odigo de calibraci\'on}}{}\protected@file@percent }
\newlabel{fig:ECCI}{{4}{}}
\@writefile{lof}{\contentsline {figure}{\numberline {5}{\ignorespaces C\'odigo de calibraci\'on}}{}\protected@file@percent }
\newlabel{fig:ECCI}{{5}{}}
\@writefile{lof}{\contentsline {figure}{\numberline {6}{\ignorespaces C\'odigo de Lectura}}{}\protected@file@percent }
\newlabel{fig:ECCI}{{6}{}}
\@writefile{lof}{\contentsline {figure}{\numberline {7}{\ignorespaces Datos tomados calibrandos}}{}\protected@file@percent }
\newlabel{fig:ECCI}{{7}{}}
\@writefile{lof}{\contentsline {figure}{\numberline {8}{\ignorespaces Acelerometro sin calibrar}}{}\protected@file@percent }
\newlabel{fig:ECCI}{{8}{}}
\@writefile{lof}{\contentsline {figure}{\numberline {9}{\ignorespaces Acelerometro calibrado}}{}\protected@file@percent }
\newlabel{fig:ECCI}{{9}{}}
\@writefile{lof}{\contentsline {figure}{\numberline {10}{\ignorespaces Giroscopio sin calibrar}}{}\protected@file@percent }
\newlabel{fig:ECCI}{{10}{}}
\@writefile{lof}{\contentsline {figure}{\numberline {11}{\ignorespaces Giroscopio calibrado}}{}\protected@file@percent }
\newlabel{fig:ECCI}{{11}{}}
\@writefile{lof}{\contentsline {figure}{\numberline {12}{\ignorespaces Giroscopio en movimiento}}{}\protected@file@percent }
\newlabel{fig:ECCI}{{12}{}}
\@writefile{lof}{\contentsline {figure}{\numberline {13}{\ignorespaces Acelerometro en movimiento}}{}\protected@file@percent }
\newlabel{fig:ECCI}{{13}{}}
\@writefile{lof}{\contentsline {figure}{\numberline {14}{\ignorespaces Raspian}}{}\protected@file@percent }
\newlabel{fig:ECCI}{{14}{}}
\@writefile{lof}{\contentsline {figure}{\numberline {15}{\ignorespaces Descargar VNC}}{}\protected@file@percent }
\newlabel{fig:ECCI2}{{15}{}}
\@writefile{lof}{\contentsline {figure}{\numberline {16}{\ignorespaces Aceptar}}{}\protected@file@percent }
\newlabel{fig:ECCI2}{{16}{}}
\@writefile{lof}{\contentsline {figure}{\numberline {17}{\ignorespaces Terminos y Condiciones}}{}\protected@file@percent }
\newlabel{fig:ECCI2}{{17}{}}
\@writefile{lof}{\contentsline {figure}{\numberline {18}{\ignorespaces IP}}{}\protected@file@percent }
\newlabel{fig:ECCI2}{{18}{}}
\@writefile{lof}{\contentsline {figure}{\numberline {19}{\ignorespaces Conexi\'on Ethernet}}{}\protected@file@percent }
\newlabel{fig:ECCI2}{{19}{}}
\@writefile{lof}{\contentsline {figure}{\numberline {20}{\ignorespaces Con?guraci\'on de Conexiones}}{}\protected@file@percent }
\newlabel{fig:ECCI2}{{20}{}}
\@writefile{toc}{\contentsline {section}{\numberline {IV}Conclusiones}{}\protected@file@percent }
\newlabel{sec:conclusiones}{{IV}{}}
